{
  "prompt": "이재명 관련 최근 뉴스 보여줘",
  "response": {
    "structuredContent": {
      "total_count": 2182,
      "page": 1,
      "has_next": true,
      "top_articles": [
        {
          "title": "전북 시·군의회 의장들 “영호남 내륙선 철도 조속 구축해야”",
          "publisher": "전라일보",
          "date": null
        },
        {
          "title": "장동혁, 역대 최장 24시간 필리버스터...내란재판부법 통과",
          "publisher": "YTN",
          "date": null
        },
        {
          "title": "경기동북부 6개 시군 '친환경 수변 관광거점' 조성 추진",
          "publisher": "이데일리",
          "date": null
        },
        {
          "title": "'연말 연시' 인파 안전대책 강조한 李대통령 \"과하다 비난받을 정도로\"",
          "publisher": "아시아경제",
          "date": null
        },
        {
          "title": "이 대통령 \"해수부 이전, 부산 도약의 계기\"",
          "publisher": "OBS",
          "date": null
        }
      ]
    },
    "content": "'이재명' 관련 뉴스 2,182건을 찾았습니다. 상위 결과: 전북 시·군의회 의장들 “영호남 내륙선 철도 조속 구축해야”",
    "_meta": {
      "openai/outputTemplate": "widget://search_results",
      "openai/widgetCSP": [
        "*.bigkinds.or.kr",
        "*.chosun.com",
        "*.donga.com",
        "*.joongang.co.kr",
        "*.hankyung.com",
        "*.mk.co.kr",
        "*.hani.co.kr",
        "*.khan.co.kr",
        "*.kbs.co.kr",
        "*.sbs.co.kr",
        "*.mbc.co.kr",
        "*.yna.co.kr"
      ],
      "full_data": {
        "articles": [
          {
            "news_id": "01600901.20251223134636002",
            "title": "전북 시·군의회 의장들 “영호남 내륙선 철도 조속 구축해야”",
            "summary": "전북특별자치도 시·군의회 의장들이 전북 동북부 내륙지역의 접근성 개선과 국토균형발전을 위해 영호남 내륙선(전주~김천) 철도 건설사업의 조속한 추진을 촉구하고 나섰다. <br/> <br/> 전북특별자치도시·군의회의장협의회(회장 남관우 전주시의회 의장)는 지난 23일 태권도원에서 열린 제295차 월례회에서 오광석 무주군의회 의장이 제안한 「영호남 내륙선(전주~김천) 철도..",
            "publisher": "전라일보",
            "category": "006000000 006011000\n006000000 006007000\n006000000 006002000",
            "published_date": "20251223",
            "url": "http://www.jeollailbo.com/news/articleView.html?idxno=787741",
            "author": "김현준 기자"
          },
          {
            "news_id": "08100401.20251223134602001",
            "title": "장동혁, 역대 최장 24시간 필리버스터...내란재판부법 통과",
            "summary": "[앵커] <br/>오늘(23일) 국회에서는 무제한 토론 끝에, 내란전담재판부 설치법이 통과됐습니다.<br/><br/>이 과정에서 24시간을 꽉 채운, 역대 최장의 필리버스터 기록이 나오기도 했습니다.<br/><br/>취재기자 연결해보겠습니다. 김다연 기자!<br/><br/>장동혁 대표가, 필리버스터 역대 최장 시간을 돌파했죠.<br/><br/>[기자] <br/>네, 장동혁 대표, 어제 오전 11시 40분부터 꼬박 24시간을..",
            "publisher": "YTN",
            "category": "001000000 001004000\n001000000 001006000\n001000000 001002000",
            "published_date": "20251223",
            "url": "https://www.ytn.co.kr/_ln/0101_202512231338028262",
            "author": "김다연"
          },
          {
            "news_id": "04101008.20251223134529001",
            "title": "경기동북부 6개 시군 '친환경 수변 관광거점' 조성 추진",
            "summary": "[하남=이데일리 황영민 기자] 하남시, 광주시, 양평군, 가평군, 구리시, 남양주시 등 경기동북부 6개 지자체가 북한강과 팔당호 등 상수원보호구역 일대를 ‘친환경 수변 관광 거점’으로 만들기 위해 힘을 모았다.<br/><br/>[AI DALL-E3가 생성한 이미지]23일 경기 하님시에 따르면 이들 6개 지자체는 지난 22일 친환경 수변 관광 거점 조성을 위해 경기도에..",
            "publisher": "이데일리",
            "category": "006000000 006002000\n006000000 006013000\n006000000 006011000",
            "published_date": "20251223",
            "url": "http://www.edaily.co.kr/news/newspath.asp?newsid=03617846642401472",
            "author": "황영민"
          },
          {
            "news_id": "02100801.20251223134422002",
            "title": "'연말 연시' 인파 안전대책 강조한 李대통령 \"과하다 비난받을 정도로\"",
            "summary": "이재명 대통령이 23일 연말연시 인파가 몰리는 행사가 잇따르는 만큼 \"과하다는 비난을 받더라도 위험을 최소화하는 조치를 해달라\"고 당부했다. <br/> <br/>이 대통령은 이날 해양수산부 부산 임시청사에서 국무회의를 갖고 \"국민 안전에 대한 일은 지나치게 하는 것이 부족한 것보다 수백 배는 낫다\"면서 이같이 밝혔다. <br/> <br/>그러면서 이 대통령은 \"연례적으로 반복되는 ..",
            "publisher": "아시아경제",
            "category": "001000000 001006000",
            "published_date": "20251223",
            "url": "https://view.asiae.co.kr/article/2025122313433236846",
            "author": "임철영"
          },
          {
            "news_id": "08200101.20251223134321001",
            "title": "이 대통령 \"해수부 이전, 부산 도약의 계기\"",
            "summary": "이재명 대통령은 \"해양수산부 이전은 국토 균형발전과 부산 도약의 중대한 계기가 될 것\"이라고 말했습니다. <br/><br/>이 대통령은 오늘 개청식을 갖는 해수부 부산 임시청사에서 \"부산이 대한민국을 넘어 동북아의 대표적 경제ㆍ산업ㆍ물류 중심도시로 발돋움하도록 모든 재정ㆍ행정 지원을 아끼지 않겠다\"며 이같이 밝혔습니다. <br/><br/>그러면서 \"부산과 동남권의 발전이 대한민국 ..",
            "publisher": "OBS",
            "category": "001000000 001006000\n006000000 006008000\n006000000 006003000",
            "published_date": "20251223",
            "url": "http://www.obsnews.co.kr/news/articleView.html?idxno=1508147",
            "author": "배해수"
          },
          {
            "news_id": "01400551.20251223134152002",
            "title": "민주평통 단양군협의회, '화해·협력' 남북관계 재정립 위한 심도 있는 논의 진행",
            "summary": "［충북일보］ 민주평화통일자문회의 단양군협의회가 지난 22일 2025년 4차 정기회의를 개최하며 한반도의 평화와 통일 정책 방향을 모색했다. <br/><br/>김종태 협의회장과 김문근 단양군수를 비롯한 35명의 자문위원이 참석해 '화해·협력의 남북관계 재정립을 위한 정책방향'을 핵심 주제로 다양한 의견을 교환했다. <br/><br/>이번 정기회의는 개회식과 함께 자문위원들의 통일 관..",
            "publisher": "충북일보",
            "category": "001000000 001001000",
            "published_date": "20251223",
            "url": "https://www.inews365.com/news/article.html?no=900127",
            "author": "이형수"
          },
          {
            "news_id": "04104008.20251223134058001",
            "title": "내란전담재판부법 본회의 통과…국민의힘 \"대통령 거부권 요구\"",
            "summary": "윤석열 전 대통령의 지난 12.3 비상계엄 사태 등 내란·외환죄 사건의 경우 전담재판부를 구성해 이에 맡기도록 하는 이른바 내란특별재판부 설치법이 23일 국회 본회의를 통과했다.<br/><br/>국회는 이날 본회의에서 '내란·외환·반란 범죄 등의 형사절차에 관한 특례법' 제정안 수정안을 재석 179인 중 찬성 175인, 반대 2인, 기권 2인으로 가결했다.<br/><br/>이 법안..",
            "publisher": "프레시안",
            "category": "001000000 001004000\n001000000 001005000\n001000000 001002000",
            "published_date": "20251223",
            "url": null,
            "author": "곽재훈"
          },
          {
            "news_id": "02100201.20251223134058001",
            "title": "헌정사 최초·최장 기록 쓴 장동혁…\"이재명 대통령, 거부권 행사해야\"",
            "summary": "[머니투데이 박상곤 기자] [the300]<br/><br/> <br/>장동혁 국민의힘 대표가 내란전담재판부(내란특별재판부) 설치법에 대한 필리버스터를 24시간 동안 진행하면서 헌정사 역대 최장 기록을 달성했다. 국민의힘 의원들의 기립 박수로 격려받은 장 대표는 이재명 대통령을 향해 \"헌법 수호 의지가 있다면 반드시 재의요구권(거부권)을 행사해야 할 것\"이라고 강조했다.<br/><br/>장..",
            "publisher": "머니투데이",
            "category": "001000000 001004000\n001000000 001006000\n001000000 001002000",
            "published_date": "20251223",
            "url": "https://www.mt.co.kr/politics/2025/12/23/2025122313035535540",
            "author": "박상곤|기자|"
          },
          {
            "news_id": "01100201.20251223134058001",
            "title": "탈북민→북향민…통일부 “호칭변경 조속결정”",
            "summary": "통일부가 ‘탈북민’ 호칭을 ‘북향민’으로 변경하는 방안을 신속하게 결정해 추진할 것이라고 밝혔다. <br/> <br/>통일부 당국자는 23일 언론브리핑에서 탈북민 호칭 변경 추진 경과에 관한 질문에 “조속한 시일 내에 결론을 내서 추진할 계획”이라고 답변했다. <br/> <br/>정동영 통일부 장관은 지난 19일 이재명 대통령에게 2026년 업무계획을 보고하며 ‘북한이탈주민’과 ‘..",
            "publisher": "국민일보",
            "category": "001000000 001001000\n001000000 001006000\n001000000 001004000",
            "published_date": "20251223",
            "url": "https://www.kmib.co.kr/article/view.asp?arcid=0029154264&code=61111111&cp=kd",
            "author": "백재연"
          },
          {
            "news_id": "07100501.20251223134007002",
            "title": "李 대통령 “동남권, 북극항로 시대 글로벌 거점… 해수부 장관, 부산 인재 발탁할 것”",
            "summary": "이재명 대통령이 동남권을 '북극항로 시대'의 글로벌 거점으로 육성하기 위해 범정부적 역량을 결집할 것을 주문했다. 가덕도 신공항과 연계한 인프라 구축에 속도를 내는 한편, 차기 해양수산부 장관도 부산 인재 중에서 발탁하겠다는 구상을 밝히며 지역 균형 발전에 대한 강력한 의지를 드러냈다.<br/><br/>이 대통령은 23일 부산에서 제55회 국무회의를 주재하고, 해양수..",
            "publisher": "전자신문",
            "category": "001000000 001006000",
            "published_date": "20251223",
            "url": "http://www.etnews.com/20251223000266",
            "author": "최호"
          },
          {
            "news_id": "08100401.20251223134004003",
            "title": "이 대통령 \"생중계 업무보고로 주권의식 다져...공직자, 국민 두려워해야\"",
            "summary": "이재명 대통령은 생중계로 진행된 부처별 업무보고를 통해 국정 운영의 투명성과 책임성이 높아지고 국민의 주권의식도 내실 있게 다져졌다고 평가했습니다.<br/><br/>이 대통령은 오늘(23일) 국무회의에서, 업무보고 생중계 과정에서 일부 부처의 미흡한 보고를 국민이 실시간으로 지적하고 바로잡은 사례도 많았다며 이같이 말했습니다.<br/><br/>이어 공직자는 주권자인 국민을 늘 두려..",
            "publisher": "YTN",
            "category": "001000000 001006000\n001000000 001005000\n001000000 001002000",
            "published_date": "20251223",
            "url": "https://www.ytn.co.kr/_ln/0101_202512231339302646",
            "author": "정인용"
          },
          {
            "news_id": "02100201.20251223133913001",
            "title": "세계로 뻗어가는 K-농업ODA…개도국 맞춤형지원에 '호응'",
            "summary": "[머니투데이 세종=정혁수 기자] 지난 달 남아프리카공화국에서 열린 G20 정상회의에서 이재명대통령이 우리나라의 대표적인 국제협력사업으로 'K-라이스벨트 사업'을 꼽으면서 농식품부에서 추진하고 있는 다양한 공적원조(ODA) 활동이 새롭게 조명받고 있다. <br/><br/>농식품부는 \"아프리카 식량 부족문제를 해결하기 위한 K-라이스벨트 사업은 현재 14개국과 양해각서(..",
            "publisher": "머니투데이",
            "category": "006000000 006013000\n006000000 006009000\n006000000 006014000",
            "published_date": "20251223",
            "url": "https://www.mt.co.kr/economy/2025/12/23/2025122308553033213",
            "author": "세종=정혁수|기자|"
          },
          {
            "news_id": "01100401.20251223133850001",
            "title": "‘업무보고 생중계’ 추켜세운 李 “국민 댓글로 실시간 지적”",
            "summary": "이재명 대통령은 23일 정부부처 업무보고 마지막 생중계를 앞두고 “생중계 과정에서 일부 부처나 기관의 미흡한 보고를 국민이 댓글을 통해 실시간으로 지적하고 바로잡는 사례도 많았다”고 밝혔다. <br/> <br/>이 대통령은 이날 부산 해양수산부 신청사에서 국무회의를 주재하고 “제게도 알지 못하던 새로운 지적 사항이나 문제 제기를 요청한 경우도 많다”며 이같이 말했다...",
            "publisher": "동아일보",
            "category": "001000000 001006000\n001000000 001004000\n001000000 001005000",
            "published_date": "20251223",
            "url": "https://www.donga.com/news/Politics/article/all/20251223/133022408/2",
            "author": "이혜원"
          },
          {
            "news_id": "01100901.20251223133849001",
            "title": "李 대통령 “애국가 배경, 국가 발전상 담았으면”…‘K인증’ 도입도 검토 지시",
            "summary": "이재명 대통령이 애국가 영상의 배경 화면을 최근 한국의 발전상과 국제적 위상을 보여주는 방향으로 바꾸는 방안을 검토해 달라고 지시했다. 한국산 제품에 대한 정부 인증, 이른바 ‘K인증’ 도입도 함께 언급했다. <br/> <br/> 이 대통령은 23일 부산 동구 해양수산부 청사에서 열린 국무회의에서 “애국가 배경 화면이 너무 오래됐다는 지적이 있었다”며 “우리의 최근 ..",
            "publisher": "중앙일보",
            "category": "001000000 001006000",
            "published_date": "20251223",
            "url": "https://www.joongang.co.kr/article/25392179",
            "author": "배재성(hongdoya@joongang.co.kr)"
          },
          {
            "news_id": "01100751.20251223133741001",
            "title": "자원안보실에 'M.AX 국'도 신설…산업부, 12년만 최대 조직개편",
            "summary": "세종/아시아투데이 김정규 기자 = 산업통상부가 12년 만에 대규모 조직 개편에 나선다. 에너지 기능 분리 이후 산업 정책의 컨트롤타워를 재정비하고, 경제 안보와 제조 AI 전환을 뒷받참하겠다는 게 핵심이다. 이를 위해 산업통상부는 각 부서에 흩어져 있던 자원 안보 관련 기능을 한 데 모아 '산업자원안보실'을 신설했다. 또 지난 9월 제조업의 AI 전환을..",
            "publisher": "아시아투데이",
            "category": "002000000 002001000\n001000000 001006000\n002000000 002009000",
            "published_date": "20251223",
            "url": "https://www.asiatoday.co.kr/view.php?key=20251223010012488",
            "author": ""
          }
        ],
        "page": 1,
        "total_count": 2182
      }
    }
  }
}