{
  "prompt": "삼성전자 최근 뉴스 검색해줘",
  "response": {
    "structuredContent": {
      "total_count": 2076,
      "page": 1,
      "has_next": true,
      "top_articles": [
        {
          "title": "포스코도 합류한 휴머노이드 투자... 피지컬 AI 로봇 경쟁 '활활'",
          "publisher": "한국일보",
          "date": null
        },
        {
          "title": "\"올해 글로벌 증시 승자는 은 채굴업체, 로빈후드, SK하이닉스\"",
          "publisher": "세계일보",
          "date": null
        },
        {
          "title": "[투자 알고리즘] 한일령 완화·中 콘서트 기대감… 내년이 더 기대되는 엔터, 하이브·에스엠 모아가자",
          "publisher": "머니투데이",
          "date": null
        },
        {
          "title": "“삼성반도체여, 상생 도와달라” 중소기업들 읍소",
          "publisher": "내일신문",
          "date": null
        },
        {
          "title": "'환율 1480원대' 삼성·SK, 반도체 웃지만 투자 리스크 커졌다",
          "publisher": "머니투데이",
          "date": null
        }
      ]
    },
    "content": "'삼성전자' 관련 뉴스 2,076건을 찾았습니다. 상위 결과: 포스코도 합류한 휴머노이드 투자... 피지컬 AI 로봇 경쟁 '활활'",
    "_meta": {
      "openai/outputTemplate": "widget://search_results",
      "openai/widgetCSP": [
        "*.bigkinds.or.kr",
        "*.chosun.com",
        "*.donga.com",
        "*.joongang.co.kr",
        "*.hankyung.com",
        "*.mk.co.kr",
        "*.hani.co.kr",
        "*.khan.co.kr",
        "*.kbs.co.kr",
        "*.sbs.co.kr",
        "*.mbc.co.kr",
        "*.yna.co.kr"
      ],
      "full_data": {
        "articles": [
          {
            "news_id": "01101101.20251223134000001",
            "title": "포스코도 합류한 휴머노이드 투자... 피지컬 AI 로봇 경쟁 '활활'",
            "summary": "포스코그룹이 휴머노이드(인간형) 로봇 신규 투자에 나서며, 기업들의 치열한 피지컬 인공지능(물리적 AI) 경쟁에 뛰어들었다.<br/>포스코DX는 미국의 산업용 휴머노이드 기업인 페르소나AI에 그룹 차원에서 총 300만 달러(약 44억 원)을 투자했다고 23일 밝혔다. 지난해 6월 설립된 페르소나AI는 고강도 작업이 필요한 중공업 분야에 활용되는 로봇을 개발한다..",
            "publisher": "한국일보",
            "category": "002000000 002005000\n002000000 002009000\n008000000 008001000",
            "published_date": "20251223",
            "url": "https://www.hankookilbo.com/News/Read/A2025122311030002423",
            "author": "홍인택"
          },
          {
            "news_id": "01100701.20251223133639001",
            "title": "\"올해 글로벌 증시 승자는 은 채굴업체, 로빈후드, SK하이닉스\"",
            "summary": "올해 글로벌 주식시장을 달군 화두는 은(銀), 개인 투자 열풍, 인공지능(AI)이었다. <br/> <br/> 세계 최대 은 채굴업체 프레스니요(Fresnillo)와 미국의 온라인 트레이딩 플랫폼 로빈후드, 한국의 SK하이닉스 등 관련주들이 높은 주가 상승률을 기록했다. <br/> 파이낸셜타임스(FT)는 22일(현지시간) '올해 주식시장의 승자와 패자'라는 제목의 기사에서 이..",
            "publisher": "세계일보",
            "category": "002000000 002006000\n002000000 002009000\n002000000 002011000",
            "published_date": "20251223",
            "url": "https://www.segye.com/newsView/20251223507698",
            "author": ""
          },
          {
            "news_id": "02100201.20251223133545001",
            "title": "[투자 알고리즘] 한일령 완화·中 콘서트 기대감… 내년이 더 기대되는 엔터, 하이브·에스엠 모아가자",
            "summary": "[머니투데이 강상구 MTN PD] <br/>진행 : 이수연 앵커<br/>출연 : 이화진 과장/ iM증권 도곡WM센터<br/><br/><br/>Q. 삼성전자, 신고가 장중 돌파… 목표가 어디까지 열어둘까?<br/><br/>Q. SK하이닉스, 외국인?기관 꾸준히 매집… 지금도 매수 기회?<br/><br/>Q. 오늘 다시 쉬어가는 소부장주… 오히려 모아갈 때?<br/><br/>Q. 트럼프 \"한화와 신형 군함 건조 협력\"… 조선주 다시 ..",
            "publisher": "머니투데이",
            "category": "002000000 002009000\n002000000 002006000",
            "published_date": "20251223",
            "url": "https://www.mt.co.kr/stock/2025/12/23/2025122312297070241",
            "author": "강상구|MTN PD|"
          },
          {
            "news_id": "01100301.20251223133356001",
            "title": "“삼성반도체여, 상생 도와달라” 중소기업들 읍소",
            "summary": "한국고소작업대임대업협동조합, 평택 팹5기 공사참여 호소 <br/>“대기업의 최저가 입찰제 독식구조로 중소 렌탈사들 좌절” <br/><br/>한국 고소작업대 임대업 협동조합(조합)이 삼성전자 평택 사업장 팹5기(P5) 건설 공사를 앞두고 삼성측에 ‘상생의 손길을 내밀어달라’며 읍소해 관심을 끌고 있다. 이 공사 시공사인 삼성물산을 대상으로 ‘중소 렌탈업체들이 공정하게 시장에 ..",
            "publisher": "내일신문",
            "category": "002000000 002010000\n002000000 002005000\n002000000 002001000",
            "published_date": "20251223",
            "url": "https://www.naeil.com/news/read/572061?ref=bigkinds",
            "author": "김은광"
          },
          {
            "news_id": "02100201.20251223133213001",
            "title": "'환율 1480원대' 삼성·SK, 반도체 웃지만 투자 리스크 커졌다",
            "summary": "[머니투데이 김남이 기자] 원/달러 환율이 1480원을 넘어서면서 수출 비중이 높은 삼성전자와 SK하이닉스에는 단기적으로 실적 개선 효과가 기대된다. 다만 대규모 설비투자(CAPEX)를 앞둔 상황에서 환율 변동성이 커질 경우 투자 부담과 불확실성도 함께 확대될 수 있다는 우려가 나온다.<br/><br/>23일 업계에 따르면 원/달러 환율이 5% 상승할 경우 삼성전자의..",
            "publisher": "머니투데이",
            "category": "002000000 002002000\n002000000 002003000\n002000000 002006000",
            "published_date": "20251223",
            "url": "https://www.mt.co.kr/industry/2025/12/23/2025122311221556082",
            "author": "김남이|기자|"
          },
          {
            "news_id": "01600801.20251223132205002",
            "title": "은 채굴·로빈후드·하이닉스, 올해 증시 주인공",
            "summary": "올해 글로벌 주식시장을 관통한 키워드는 은(銀), 개인 투자 열풍, 인공지능(AI)이었다. 은 가격 급등과 AI 투자 확대, 개인 투자자 유입이 맞물리며 관련 기업들이 증시에서 두드러진 성과를 냈다. 영국 파이낸셜타임스는 22일(현지시간) ‘올해 주식시장의 승자와 패자’ 기사에서 세계 최대 은 채굴업체 프레스니요, 미국 온라인 트레이딩 플랫폼 로빈후드,..",
            "publisher": "전남일보",
            "category": "002000000 002006000\n002000000 002009000\n002000000 002002000",
            "published_date": "20251223",
            "url": "https://www.jnilbo.com/news/articleView.html?idxno=90000017567",
            "author": "전남일보·연합뉴스"
          },
          {
            "news_id": "04100158.20251223132009001",
            "title": "회장 취임 이래 가장 분주한 해…이재용, 다른 밀도의 시간 보냈다",
            "summary": "이재용 삼성전자 회장이 올해, 회장 취임 이후 가장 촘촘하고 무거운 시간표를 소화했다. 단순히 이동이 잦았던 한 해가 아니라, 삼성의 미래 기반을 다지는 일정이 연중 이어졌다는 점에서 이전과 다른 밀도의 시간을 보냈다는 평가가 나온다.<br/><br/><br/>23일 재계에 따르면 이재용 회장은 전날 기흥·화성 캠퍼스를 찾아 차세대 반도체 기술력을 점검한 일정을 끝으로 올해..",
            "publisher": "데일리안",
            "category": "002000000 002009000\n002000000 002011000",
            "published_date": "20251223",
            "url": null,
            "author": "데일리안 정인혁 기자 (jinh@dailian.co.kr)"
          },
          {
            "news_id": "02100201.20251223130754001",
            "title": "[김민수의 잠금해제] 연말 주인공은 로봇, 보스턴다이내믹스 부품사… CES 전 베팅할 것?",
            "summary": "[머니투데이 김문희 MTN PD] <br/>잠겨있는 내 계좌의 수익률을 해제하라!<br/>시장이 재평가 중인 시세의 주인공과 <br/>앞으로 재평가가 기대되는 시세의 주인공을 한 번에 만날 수 있는 시간. <br/>김민수 레몬리서치 대표가 분석하는 오늘 시장의 주인공은?<br/><br/>(출연) 김민수 레몬리서치 대표 <br/><br/><br/>* 11/4 에이팩트 20.3% (시가기준) 24.9% (최고가 기준) ..",
            "publisher": "머니투데이",
            "category": "002000000 002005000\n002000000 002009000\n002000000 002003000",
            "published_date": "20251223",
            "url": "https://www.mt.co.kr/stock/2025/12/23/2025122311257064556",
            "author": "김문희|MTN PD|"
          },
          {
            "news_id": "01100301.20251223130252001",
            "title": "AI·관세가 가른 증시 승자와 패자",
            "summary": "2025년 글로벌 주식시장은 인공지능과 관세 정책에 따라 승자와 패자가 극명하게 갈렸다고 파이낸셜타임스가 22일(현지시간) 분석했다. 아시아 반도체 기업과 유럽 방산업체가 최대 수혜주로 떠올랐지만, 미국 소비재 업종은 고전을 면치 못했다. 도널드 트럼프 대통령의 무역 전쟁과 인공지능 투자 붐이 증시 지형을 바꾼 결과다. <br/> <br/> 인공지능 열풍은 트럼프 대..",
            "publisher": "내일신문",
            "category": "002000000 002006000\n002000000 002009000\n002000000 002011000",
            "published_date": "20251223",
            "url": "https://www.naeil.com/news/read/572002?ref=bigkinds",
            "author": "이주영"
          },
          {
            "news_id": "04100608.20251223130227002",
            "title": "대우건설, '용인 푸르지오 원클러스터파크' 분양",
            "summary": "▲ 대우건설 '용인 푸르지오 원클러스터파크' 조감도  © 브레이크뉴스 <br/> <br/><br/><br/><br/><br/><br/><br/><br/><br/><br/><br/> <br/>브레이크뉴스 문홍철 기자= 대우건설이 경기도 용인시 처인구에서 반도체 클러스터 배후 주거지로 주목받는 ‘용인 푸르지오 원클러스터파크’를 분양 중이다. <br/> <br/><br/><br/>   <br/> <br/><br/><br/> 대우건설(대표이사 김보현)은 용인시 처인구 양지면 양지리 일원에 조성되는 ‘용인 푸..",
            "publisher": "브레이크뉴스",
            "category": "006000000 006002000\n002000000 002010000\n002000000 002009000",
            "published_date": "20251223",
            "url": "http://www.breaknews.com/1171321",
            "author": "문홍철 기자"
          },
          {
            "news_id": "08100401.20251223130002002",
            "title": "염승환 \"반도체 외에 주도주? 바로 '이 것'..내년 코스피 '上高下低' 예상\"",
            "summary": "■ 방송 : YTN 라디오 FM 94.5 (09:00~10:00)<br/>■ 진행 : 조태현 기자<br/>■ 방송일 : 2025년 12월 23일 화요일<br/>■ 대담 : 염승환 LS증권 이사<br/><br/>- 코스피 PER 9.8배 vs S&P500 23배..코스피 여전히 저평가..반도체 실적 무리 없고, '자사주 소각' 정책 이슈 정리되면 5천피 어렵지 않아<br/>- 내년 코스피 '상고하..",
            "publisher": "YTN",
            "category": "002000000 002005000\n002000000 002006000\n002000000 002013000",
            "published_date": "20251223",
            "url": "https://www.ytn.co.kr/_ln/0102_202512231154420549",
            "author": "김양원"
          },
          {
            "news_id": "08100401.20251223124203001",
            "title": "GPU 가고 '메모리' 온다..\"3위 마이크론 봐라, 삼성전자·하이닉스 더 간다!\"",
            "summary": "■ 방송 : YTN 라디오 FM 94.5 (09:00~10:00)<br/>■ 진행 : 조태현 기자<br/>■ 방송일 : 2025년 12월 23일 화요일<br/>■ 대담 : 염승환 LS증권 이사<br/><br/>- 올해 매월 찾아온 '산타', 연말 '미니 산타'급 예상..오라클·마이크론 실적으로 AI거품론 잠재워 <br/>- 시장은 여전히 '메모리' 과소평가 중..메모리 3위 업체 마이크론, 실적..",
            "publisher": "YTN",
            "category": "002000000 002013000\n002000000 002006000\n002000000 002009000",
            "published_date": "20251223",
            "url": "https://www.ytn.co.kr/_ln/0102_202512231153586980",
            "author": "김양원"
          },
          {
            "news_id": "02100051.20251223124103001",
            "title": "[신년사] LG전자 류재철의 ‘실행 경영’…속도·AI·B2B로 삼각축 재정비",
            "summary": "[대한경제=심화영 기자]LG전자가 내년 경영 화두로 ‘속도와 실행’을 전면에 내세웠다. 취임 첫 해를 맞은 류재철 최고경영자(CEO)는 23일 신년사에서 “이기는 핵심은 속도”라며 “고객 중심의 철저한 실행으로 경쟁의 판을 바꿔야 한다”고 선언했다. <br/><br/> <br/><br/>그의 메시지는 경기 둔화, 글로벌 수요 정체, 중국 업체의 저가 공세 등 불확실성이 커지는 상황..",
            "publisher": "대한경제",
            "category": "008000000 008003000\n008000000 008002000",
            "published_date": "20251223",
            "url": "http://www.dnews.co.kr/uhtml/view.jsp?idxno=202512231219081950926",
            "author": "심화영"
          },
          {
            "news_id": "08100401.20251223123402001",
            "title": "\"올해 글로벌 증시 승자는 SK하이닉스, 은 채굴업체, 로빈후드\"",
            "summary": "올해 글로벌 주식시장을 달군 화두는 은(銀), 개인 투자 열풍, 인공지능(AI)이었습니다.<br/><br/>세계 최대 은 채굴업체 프레스니요(Fresnillo)와 미국의 온라인 트레이딩 플랫폼 로빈후드, 한국의 SK하이닉스 등 관련주들이 높은 주가 상승률을 기록했습니다.<br/><br/>파이낸셜타임스(FT)는 현지시간 22일 '올해 주식시장의 승자와 패자'라는 제목의 기사에서 이런..",
            "publisher": "YTN",
            "category": "002000000 002006000\n002000000 002009000\n002000000 002011000",
            "published_date": "20251223",
            "url": "https://www.ytn.co.kr/_ln/0104_202512231233121549",
            "author": "권영희"
          },
          {
            "news_id": "04101008.20251223120221003",
            "title": "화학산업 미래 경쟁력 확보…'혁신 얼라이언스' 출범",
            "summary": "[이데일리 김은비 기자] 화학산업의 구조적 전환을 뒷받침할 민관협력 ‘화학산업 혁신 얼라이언스’가 23일 출범했다.<br/><br/>32일 서울시 소공동 소재 롯데호텔에서 진행된 화학산업 혁신 얼라이언스 출범식에서 엄찬왕 한국화학산업협회 부회장이 환영사를 발표하고 있다. (사진=화학산업협회)화학산업협회는 23일 서울 소공동 롯데호텔에서 ‘화학산업 혁신 얼라이언스’ 출..",
            "publisher": "이데일리",
            "category": "002000000 002007000\n002000000 002011000",
            "published_date": "20251223",
            "url": "http://www.edaily.co.kr/news/newspath.asp?newsid=03404646642401472",
            "author": "김은비"
          },
          {
            "news_id": "01100501.20251223120056001",
            "title": "FT “올 글로벌 증시 승자는 하이닉스”",
            "summary": "‘은 채굴’ 프레스니요 등 선정<br/>올 하이닉스 주가 234% 뛰어<br/><br/>올해 글로벌 주식시장의 최대 승자 중 하나로 SK하이닉스가 선정됐다.<br/><br/>파이낸셜타임스(FT)는 22일(현지시간) ‘올해 주식시장의 승자와 패자’라는 제목의 기사에서 올해 인공지능(AI) 열풍으로 아시아 반도체 제조업체들이 혜택을 입었으며, 특히 한국 증시가 올해 기술주 강세로 세계에서 가..",
            "publisher": "문화일보",
            "category": "002000000 002009000\n002000000 002006000\n002000000 002011000",
            "published_date": "20251223",
            "url": "https://www.munhwa.com/article/11556201?ref=kpf",
            "author": "이은지"
          },
          {
            "news_id": "01100501.20251223120046001",
            "title": "‘반도체 신화’ 메카 찾은 이재용… 재계 “시장패권 탈환 선언한 것”",
            "summary": "■ 용인·화성사업장 방문 눈길<br/><br/>‘도쿄선언’ 이후 마련된 장소<br/>제조 자동화·AI 시스템 점검<br/><br/>이재용(사진 맨 앞) 삼성전자 회장이 삼성 반도체 신화를 쓴 경기 용인·화성시 반도체 사업장을 찾아 “과감한 혁신과 투자로 본원적 기술력을 회복하자”고 강조해 재계의 관심이 쏠리고 있다. 이 회장이 국내 반도체 사업장을 직접 찾은 것은 2023년 10월 이후 ..",
            "publisher": "문화일보",
            "category": "002000000 002009000\n002000000 002005000\n002000000 002003000",
            "published_date": "20251223",
            "url": "https://www.munhwa.com/article/11556200?ref=kpf",
            "author": "김호준"
          },
          {
            "news_id": "01100501.20251223120036002",
            "title": "성탄절 선물로 삼전 1주?… ‘주식 기프티콘’ 어떤가요",
            "summary": "한경협, 국무조정실에 건의<br/><br/>국내 증시 활성화와 이용자 편의성을 높이기 위해 특정 주식을 ‘기프티콘’으로 선물할 수 있도록 허용해야 한다는 제언이 나왔다.<br/><br/>한국경제인협회(한경협·FKI)는 코스피와 코스닥 등 국내 주식을 대상으로 ‘기프티콘 서비스’를 도입해야 한다는 아이디어를 국무조정실에 건의했다고 23일 밝혔다.<br/><br/>주식 기프티콘은 삼성전자·SK하이닉..",
            "publisher": "문화일보",
            "category": "002000000 002006000\n008000000 008003000\n002000000 002008000",
            "published_date": "20251223",
            "url": "https://www.munhwa.com/article/11556198?ref=kpf",
            "author": "권도경"
          },
          {
            "news_id": "04100958.20251223120030003",
            "title": "화학산업협회, 혁신 얼라이언스 출범 기대…\"고부가 산업 도약 지원\"",
            "summary": "한국화학산업협회는 23일 출범한 ‘화학산업 혁신 얼라이언스’에 대해 한국 화학산업의 구조적 전환과 미래 경쟁력 확보를 위한 중요한 전환점이 될 것으로 기대한다고 밝혔다. <br/><br/>화학산업 혁신 얼라이언스는 반도체, 이차전지, 미래차 등 국가 주력 산업을 중심으로 분과를 구성하고 삼성전자, LG엔솔, 현대자동차 등 분과별 앵커기업을 중심으로 핵심 공급ㆍ수요기업..",
            "publisher": "EBN",
            "category": "002000000 002007000\n002000000 002011000",
            "published_date": "20251223",
            "url": "https://www.ebn.co.kr/news/articleView.html?idxno=1692400",
            "author": "이남석 기자"
          },
          {
            "news_id": "01100501.20251223120025001",
            "title": "K석화, 고부가가치 전환… 반도체·미래차기업과 ‘원팀 매칭’",
            "summary": "■ 화학산업 혁신얼라이언스 출범<br/><br/>대기업·연구소 등 130곳 참여<br/>미래산업-석유화학 연결 시켜<br/>기술 개발~상용화 지원 방침<br/><br/>업계 전방위 구조조정 이후<br/>수익성 보장안 필요 지적도<br/><br/>중국발 공급 과잉으로 생존 위기에 직면한 국내 석유화학 기업들의 고부가가치 전환을 지원하기 위해 정부가 ‘화학산업 혁신 얼라이언스’를 출범시켰다. 다만 기업들의 역할 분담과 ..",
            "publisher": "문화일보",
            "category": "002000000 002007000\n002000000 002009000",
            "published_date": "20251223",
            "url": "https://www.munhwa.com/article/11556196?ref=kpf",
            "author": "박준희"
          }
        ],
        "page": 1,
        "total_count": 2076
      }
    }
  }
}